<?xml version="1.0" encoding="UTF-8"?>
<testng-results skipped="0" failed="0" ignored="0" total="2" passed="2">
  <reporter-output>
  </reporter-output>
  <suite name="com.test.LogInTest" duration-ms="18056" started-at="2019-03-31T13:34:14Z" finished-at="2019-03-31T13:34:32Z">
    <groups>
    </groups>
    <test name="Command line test" duration-ms="18056" started-at="2019-03-31T13:34:14Z" finished-at="2019-03-31T13:34:32Z">
      <class name="com.test.LogInTest">
        <test-method status="PASS" signature="Setup()[pri:0, instance:com.test.LogInTest@35f983a6]" name="Setup" is-config="true" duration-ms="8872" started-at="2019-03-31T13:34:14Z" finished-at="2019-03-31T13:34:23Z">
          <reporter-output>
          </reporter-output>
        </test-method> <!-- Setup -->
        <test-method status="PASS" signature="loginPageTitleTest()[pri:1, instance:com.test.LogInTest@35f983a6]" name="loginPageTitleTest" duration-ms="156" started-at="2019-03-31T13:34:23Z" finished-at="2019-03-31T13:34:23Z">
          <reporter-output>
          </reporter-output>
        </test-method> <!-- loginPageTitleTest -->
        <test-method status="PASS" signature="TearDown()[pri:0, instance:com.test.LogInTest@35f983a6]" name="TearDown" is-config="true" duration-ms="598" started-at="2019-03-31T13:34:23Z" finished-at="2019-03-31T13:34:24Z">
          <reporter-output>
          </reporter-output>
        </test-method> <!-- TearDown -->
        <test-method status="PASS" signature="Setup()[pri:0, instance:com.test.LogInTest@35f983a6]" name="Setup" is-config="true" duration-ms="7686" started-at="2019-03-31T13:34:24Z" finished-at="2019-03-31T13:34:31Z">
          <reporter-output>
          </reporter-output>
        </test-method> <!-- Setup -->
        <test-method status="PASS" signature="crmLogoImageTest()[pri:2, instance:com.test.LogInTest@35f983a6]" name="crmLogoImageTest" duration-ms="133" started-at="2019-03-31T13:34:31Z" finished-at="2019-03-31T13:34:31Z">
          <reporter-output>
          </reporter-output>
        </test-method> <!-- crmLogoImageTest -->
        <test-method status="PASS" signature="TearDown()[pri:0, instance:com.test.LogInTest@35f983a6]" name="TearDown" is-config="true" duration-ms="595" started-at="2019-03-31T13:34:31Z" finished-at="2019-03-31T13:34:32Z">
          <reporter-output>
          </reporter-output>
        </test-method> <!-- TearDown -->
      </class> <!-- com.test.LogInTest -->
    </test> <!-- Command line test -->
  </suite> <!-- com.test.LogInTest -->
</testng-results>
